.............
----------------------------------------------------------------------
Ran 13 tests in 0.002s

OK
Name               Stmts   Miss Branch BrPart  Cover   Missing
--------------------------------------------------------------
Diplomacy.py          56      0     40      0   100%
TestDiplomacy.py      99      0      2      1    99%   163->exit
--------------------------------------------------------------
TOTAL                155      0     42      1    99%
