A Boston
B Cleaveland
C Dallas
D Everett
E Frisco
F Galveston
G Houston
H Indianapolis
I Johannesburg
J Kyoto
K London
L Madrid
M NewYork
N Omaha
O Paris
P Queens
Q Reno
R Seattle
S Toronto
T Udaipur
U Vienna
V WashingtonDC
W Xianyang
X Yonkers
Y Zurich
Z Austin