.......
----------------------------------------------------------------------
Ran 7 tests in 0.001s

OK
Name               Stmts   Miss Branch BrPart  Cover   Missing
--------------------------------------------------------------
Diplomacy.py          54      0     40      0   100%
TestDiplomacy.py      46      0      0      0   100%
--------------------------------------------------------------
TOTAL                100      0     40      0   100%
