....
----------------------------------------------------------------------
Ran 4 tests in 0.002s

OK
Name               Stmts   Miss Branch BrPart  Cover   Missing
--------------------------------------------------------------
Diplomacy.py          71      0     40      0   100%
TestDiplomacy.py      26      0      0      0   100%
--------------------------------------------------------------
TOTAL                 97      0     40      0   100%
